[
  {
    "conservador": {
      "INSTRUMENTO": "VWO",
      "VALOR": "207838.763086991",
      "PORCENTAJE": "10.3919381543496"
    },
    "moderado": {
      "INSTRUMENTO": "Argos",
      "VALOR": "189762.38244732",
      "PORCENTAJE": "9.48811912236602"
    },
    "arriesgado": {
      "INSTRUMENTO": "Argos",
      "VALOR": "93959.0685543237",
      "PORCENTAJE": "4.69795342771618"
    }
  },
  {
    "conservador": {
      "INSTRUMENTO": "Dólar",
      "VALOR": "599999.033100756",
      "PORCENTAJE": "29.9999516550378"
    },
    "moderado": {
      "INSTRUMENTO": "Grupo Sura",
      "VALOR": "197644.919971141",
      "PORCENTAJE": "9.88224599855703"
    },
    "arriesgado": {
      "INSTRUMENTO": "Grupo Sura",
      "VALOR": "84683.7735138489",
      "PORCENTAJE": "4.23418867569244"
    }
  },
  {
    "conservador": {
      "INSTRUMENTO": "CDT 61-89 dias",
      "VALOR": "599991.209445129",
      "PORCENTAJE": "29.9995604722564"
    },
    "moderado": {
      "INSTRUMENTO": "Nutresa",
      "VALOR": "115308.918122288",
      "PORCENTAJE": "5.76544590611439"
    },
    "arriesgado": {
      "INSTRUMENTO": "Euro",
      "VALOR": "157690.656902214",
      "PORCENTAJE": "7.88453284511072"
    }
  },
  {
    "conservador": {
      "INSTRUMENTO": "CDT +360 dias",
      "VALOR": "585064.760004251",
      "PORCENTAJE": "29.2532380002125"
    },
    "moderado": {
      "INSTRUMENTO": "Euro",
      "VALOR": "78525.5799020696",
      "PORCENTAJE": "3.92627899510348"
    },
    "arriesgado": {
      "INSTRUMENTO": "Dólar",
      "VALOR": "60811.8614367127",
      "PORCENTAJE": "3.04059307183563"
    }
  },
  {
    "conservador": {
      "INSTRUMENTO": "N/A",
      "VALOR": "0",
      "PORCENTAJE": "0"
    },
    "moderado": {
      "INSTRUMENTO": "Dólar",
      "VALOR": "134441.797205228",
      "PORCENTAJE": "6.7220898602614"
    },
    "arriesgado": {
      "INSTRUMENTO": "CDT 31-44 dias",
      "VALOR": "1314064.24857007",
      "PORCENTAJE": "65.7032124285034"
    }
  },
  {
    "conservador": {
      "INSTRUMENTO": "N/A",
      "VALOR": "0",
      "PORCENTAJE": "0"
    },
    "moderado": {
      "INSTRUMENTO": "CDT 31-44 dias",
      "VALOR": "376470.234846782",
      "PORCENTAJE": "18.8235117423391"
    },
    "arriesgado": {
      "INSTRUMENTO": "CDT 46-59 dias",
      "VALOR": "197287.077852279",
      "PORCENTAJE": "9.86435389261397"
    }
  },
  {
    "conservador": {
      "INSTRUMENTO": "N/A",
      "VALOR": "0",
      "PORCENTAJE": "0"
    },
    "moderado": {
      "INSTRUMENTO": "CDT 46-59 dias",
      "VALOR": "191042.32125882",
      "PORCENTAJE": "9.55211606294101"
    },
    "arriesgado": {
      "INSTRUMENTO": "CDT 61-89 dias",
      "VALOR": "29863.3580231491",
      "PORCENTAJE": "1.49316790115745"
    }
  },
  {
    "conservador": {
      "INSTRUMENTO": "N/A",
      "VALOR": "0",
      "PORCENTAJE": "0"
    },
    "moderado": {
      "INSTRUMENTO": "CDT 61-89 dias",
      "VALOR": "688387.038664048",
      "PORCENTAJE": "34.4193519332024"
    },
    "arriesgado": {
      "INSTRUMENTO": "CDT +360 dias",
      "VALOR": "56996.0579844646",
      "PORCENTAJE": "2.84980289922323"
    }
  }
]


